python-int,2082.5843811035156,1035.2790355682373,788.5098457336426,64.00895118713379,64.02277946472168,112.12730407714844,53.01785469055176,0.0, 
python-string,7064.533472061157,3336.733818054199,2491.3458824157715,130.2196979522705,141.0975456237793,259.3202590942383,169.60978507995605,1.0020732879638672, 
taal,bubblesort,selectionsort,instertionsort,mergesort,quicksort,heapsort,shellsort,buildinsort 
java-int,5.385699,4.758799,6.746801,2.3568,1.715799,2.4326,1.7735,
